…
### **q2** Filter on years matching `year_min`, and make a plot of the GDP per capita against continent. Choose an appropriate `geom_` to visualize the data. What observations can you make?

You may encounter difficulties in visualizing these data; if so document
your challenges and attempt to produce the most informative visual you
can.

``` r
## TASK: Create a visual of gdpPercap vs continent
year_min_data <-
  filter(gapminder,year==1952)
print(year_min_data)
```

```         
## # A tibble: 142 × 6
##    country     continent  year lifeExp      pop gdpPercap
##    <fct>       <fct>     <int>   <dbl>    <int>     <dbl>
##  1 Afghanistan Asia       1952    28.8  8425333      779.
##  2 Albania     Europe     1952    55.2  1282697     1601.
##  3 Algeria     Africa     1952    43.1  9279525     2449.
##  4 Angola      Africa     1952    30.0  4232095     3521.
##  5 Argentina   Americas   1952    62.5 17876956     5911.
##  6 Australia   Oceania    1952    69.1  8691212    10040.
##  7 Austria     Europe     1952    66.8  6927772     6137.
##  8 Bahrain     Asia       1952    50.9   120447     9867.
##  9 Bangladesh  Asia       1952    37.5 46886859      684.
## 10 Belgium     Europe     1952    68    8730405     8343.
## # ℹ 132 more rows
```
…
### **q3** You should have found *at least* three outliers in q2 (but possibly many more!). Identify those outliers (figure out which countries they are).

``` r
## TASK: Identify the outliers from q2
##Outlier 1, asia
Asia_outlier <-
  gapminder %>%
    filter(year==1952) %>%
      filter(continent=="Asia") %>%
        arrange(desc(gdpPercap))
print(Asia_outlier)
```

```         
## # A tibble: 33 × 6
##    country          continent  year lifeExp      pop gdpPercap
##    <fct>            <fct>     <int>   <dbl>    <int>     <dbl>
##  1 Kuwait           Asia       1952    55.6   160000   108382.
##  2 Bahrain          Asia       1952    50.9   120447     9867.
##  3 Saudi Arabia     Asia       1952    39.9  4005677     6460.
##  4 Lebanon          Asia       1952    55.9  1439529     4835.
##  5 Iraq             Asia       1952    45.3  5441766     4130.
##  6 Israel           Asia       1952    65.4  1620914     4087.
##  7 Japan            Asia       1952    63.0 86459025     3217.
##  8 Hong Kong, China Asia       1952    61.0  2125900     3054.
##  9 Iran             Asia       1952    44.9 17272000     3035.
## 10 Singapore        Asia       1952    60.4  1127000     2315.
## # ℹ 23 more rows
```

``` r
##outlier 2/3 europe
Asia_outlier <-
  gapminder %>%
    filter(year==1952) %>%
      filter(continent=="Europe") %>%
        arrange((gdpPercap))
print(Asia_outlier)
```

```         
## # A tibble: 30 × 6
##    country                continent  year lifeExp      pop gdpPercap
##    <fct>                  <fct>     <int>   <dbl>    <int>     <dbl>
##  1 Bosnia and Herzegovina Europe     1952    53.8  2791000      974.
##  2 Albania                Europe     1952    55.2  1282697     1601.
##  3 Turkey                 Europe     1952    43.6 22235677     1969.
##  4 Bulgaria               Europe     1952    59.6  7274900     2444.
##  5 Montenegro             Europe     1952    59.2   413834     2648.
##  6 Portugal               Europe     1952    59.8  8526050     3068.
##  7 Croatia                Europe     1952    61.2  3882229     3119.
##  8 Romania                Europe     1952    61.0 16630000     3145.
##  9 Greece                 Europe     1952    65.9  7733250     3531.
## 10 Serbia                 Europe     1952    58.0  6860147     3581.
## # ℹ 20 more rows
```

``` r
Asia_outlier <-
  gapminder %>%
    filter(year==1952) %>%
      filter(continent=="Europe") %>%
        arrange(desc(gdpPercap))
print(Asia_outlier)
```

```         
## # A tibble: 30 × 6
##    country        continent  year lifeExp      pop gdpPercap
##    <fct>          <fct>     <int>   <dbl>    <int>     <dbl>
##  1 Switzerland    Europe     1952    69.6  4815000    14734.
##  2 Norway         Europe     1952    72.7  3327728    10095.
##  3 United Kingdom Europe     1952    69.2 50430000     9980.
##  4 Denmark        Europe     1952    70.8  4334000     9692.
##  5 Netherlands    Europe     1952    72.1 10381988     8942.
##  6 Sweden         Europe     1952    71.9  7124673     8528.
##  7 Belgium        Europe     1952    68    8730405     8343.
##  8 Iceland        Europe     1952    72.5   147962     7268.
##  9 Germany        Europe     1952    67.5 69145952     7144.
## 10 France         Europe     1952    67.4 42459667     7030.
## # ℹ 20 more rows
```
…
### **q4** Create a plot similar to yours from q2 studying both `year_min` and `year_max`. Find a way to highlight the outliers from q3 on your plot *in a way that lets you identify which country is which*. Compare the patterns between `year_min` and `year_max`.

*Hint*: We’ve learned a lot of different ways to show multiple
variables; think about using different aesthetics or facets.

``` r
## TASK: Create a visual of gdpPercap vs continent
year_min_max_data <-
  filter(gapminder, year==max(year) | year==min(year))
print(year_min_max_data)
```

```         
## # A tibble: 284 × 6
##    country     continent  year lifeExp      pop gdpPercap
##    <fct>       <fct>     <int>   <dbl>    <int>     <dbl>
##  1 Afghanistan Asia       1952    28.8  8425333      779.
##  2 Afghanistan Asia       2007    43.8 31889923      975.
##  3 Albania     Europe     1952    55.2  1282697     1601.
##  4 Albania     Europe     2007    76.4  3600523     5937.
##  5 Algeria     Africa     1952    43.1  9279525     2449.
##  6 Algeria     Africa     2007    72.3 33333216     6223.
##  7 Angola      Africa     1952    30.0  4232095     3521.
##  8 Angola      Africa     2007    42.7 12420476     4797.
##  9 Argentina   Americas   1952    62.5 17876956     5911.
## 10 Argentina   Americas   2007    75.3 40301927    12779.
## # ℹ 274 more rows
```
…
```         
## # A tibble: 142 × 6
##    country     continent avg_lifeExp   avg_pop avg_gdpPercap percent_gdp
##    <fct>       <fct>           <dbl>     <dbl>         <dbl>       <dbl>
##  1 Afghanistan Asia             37.5 15823715.          803.      0.0783
##  2 Albania     Europe           68.4  2580249.         3255.      0.318 
##  3 Algeria     Africa           59.0 19875406.         4426.      0.432 
##  4 Angola      Africa           37.9  7309390.         3607.      0.352 
##  5 Argentina   Americas         69.1 28602240.         8956.      0.874 
##  6 Australia   Oceania          74.7 14649312.        19981.      1.95  
##  7 Austria     Europe           73.1  7583298.        20412.      1.99  
##  8 Bahrain     Asia             65.6   373913.        18078.      1.76  
##  9 Bangladesh  Asia             49.8 90755395.          818.      0.0798
## 10 Belgium     Europe           73.6  9725119.        19901.      1.94  
## # ℹ 132 more rows
```
…
# 4. Group by year and gdp_bin, then average other values
df_summary <- 
  df_with_bins %>%
    group_by(year, gdp_bin, continent) %>%
    summarise(
      avg_lifeExp = mean(lifeExp, na.rm = TRUE),
      avg_pop = mean(pop, na.rm = TRUE),
      avg_gdpPercap = mean(gdpPercap, na.rm = TRUE),
      .groups = "drop"
    )
print(df_with_bins)
```

```         
## # A tibble: 1,704 × 7
##    country     continent  year lifeExp      pop gdpPercap gdp_bin 
##    <fct>       <fct>     <int>   <dbl>    <int>     <dbl> <fct>   
##  1 Afghanistan Asia       1952    28.8  8425333      779. Very Low
##  2 Afghanistan Asia       1957    30.3  9240934      821. Very Low
##  3 Afghanistan Asia       1962    32.0 10267083      853. Very Low
##  4 Afghanistan Asia       1967    34.0 11537966      836. Very Low
##  5 Afghanistan Asia       1972    36.1 13079460      740. Very Low
##  6 Afghanistan Asia       1977    38.4 14880372      786. Very Low
##  7 Afghanistan Asia       1982    39.9 12881816      978. Very Low
##  8 Afghanistan Asia       1987    40.8 13867957      852. Very Low
##  9 Afghanistan Asia       1992    41.7 16317921      649. Very Low
## 10 Afghanistan Asia       1997    41.8 22227415      635. Very Low
## # ℹ 1,694 more rows
```

``` r
print(df_summary)
```

```         
## # A tibble: 204 × 6
##     year gdp_bin  continent avg_lifeExp   avg_pop avg_gdpPercap
##    <int> <fct>    <fct>           <dbl>     <dbl>         <dbl>
##  1  1952 Very Low Africa           36.7  4379310.          588.
##  2  1952 Very Low Asia             36.6 69646914.          552.
##  3  1952 Low      Africa           39.2  4903536.         1218.
##  4  1952 Low      Americas         41.8  2403429          1811.
##  5  1952 Low      Asia             44.4 90589138.          856.
##  6  1952 Medium   Africa           43.6  4223019.         2009.
##  7  1952 Medium   Americas         48.8  3658585.         2775.
##  8  1952 Medium   Asia             46.3  6667566.         1459.
##  9  1952 Medium   Europe           50.9  8769791.         1515.
## 10  1952 High     Africa           41.6  5235122          3802.
## # ℹ 194 more rows
```
…
