…
    ## New names:
    ## Rows: 3221 Columns: 5
    ## ── Column specification
    ## ──────────────────────────────────────────────────────── Delimiter: "," chr
    ## (4): GEO_ID, NAME, B01003_001E, B01003_001M lgl (1): ...5
    ## ℹ Use `spec()` to retrieve the full column specification for this data. ℹ
    ## Specify the column types or set `show_col_types = FALSE` to quiet this message.
    ## • `` -> `...5`

``` r
print(df_pop)
```

    ## # A tibble: 3,221 × 5
    ##    GEO_ID         NAME                     B01003_001E     B01003_001M     ...5 
    ##    <chr>          <chr>                    <chr>           <chr>           <lgl>
    ##  1 Geography      Geographic Area Name     Estimate!!Total Margin of Erro… NA   
    ##  2 0500000US01001 Autauga County, Alabama  55200           *****           NA   
    ##  3 0500000US01003 Baldwin County, Alabama  208107          *****           NA   
    ##  4 0500000US01005 Barbour County, Alabama  25782           *****           NA   
    ##  5 0500000US01007 Bibb County, Alabama     22527           *****           NA   
    ##  6 0500000US01009 Blount County, Alabama   57645           *****           NA   
    ##  7 0500000US01011 Bullock County, Alabama  10352           *****           NA   
    ##  8 0500000US01013 Butler County, Alabama   20025           *****           NA   
    ##  9 0500000US01015 Calhoun County, Alabama  115098          *****           NA   
    ## 10 0500000US01017 Chambers County, Alabama 33826           *****           NA   
    ## # ℹ 3,211 more rows
…
    ## Rows: 2502832 Columns: 6
    ## ── Column specification ────────────────────────────────────────────────────────
    ## Delimiter: ","
    ## chr  (3): county, state, fips
    ## dbl  (2): cases, deaths
    ## date (1): date
    ## 
    ## ℹ Use `spec()` to retrieve the full column specification for this data.
    ## ℹ Specify the column types or set `show_col_types = FALSE` to quiet this message.

``` r
print(df_covid)
```

    ## # A tibble: 2,502,832 × 6
    ##    date       county      state      fips  cases deaths
    ##    <date>     <chr>       <chr>      <chr> <dbl>  <dbl>
    ##  1 2020-01-21 Snohomish   Washington 53061     1      0
    ##  2 2020-01-22 Snohomish   Washington 53061     1      0
    ##  3 2020-01-23 Snohomish   Washington 53061     1      0
    ##  4 2020-01-24 Cook        Illinois   17031     1      0
    ##  5 2020-01-24 Snohomish   Washington 53061     1      0
    ##  6 2020-01-25 Orange      California 06059     1      0
    ##  7 2020-01-25 Cook        Illinois   17031     1      0
    ##  8 2020-01-25 Snohomish   Washington 53061     1      0
    ##  9 2020-01-26 Maricopa    Arizona    04013     1      0
    ## 10 2020-01-26 Los Angeles California 06037     1      0
    ## # ℹ 2,502,822 more rows
…
  df_q4 %>%
  select(
    date,
    county,
    state,
    fips,
    cases,
    deaths,
    population = `total`
  ) %>%
    mutate(population = as.numeric(as.character(population)))
print(df_data)
```

    ## # A tibble: 2,502,832 × 7
    ##    date       county      state      fips  cases deaths population
    ##    <date>     <chr>       <chr>      <chr> <dbl>  <dbl>      <dbl>
    ##  1 2020-01-21 Snohomish   Washington 53061     1      0     786620
    ##  2 2020-01-22 Snohomish   Washington 53061     1      0     786620
    ##  3 2020-01-23 Snohomish   Washington 53061     1      0     786620
    ##  4 2020-01-24 Cook        Illinois   17031     1      0    5223719
    ##  5 2020-01-24 Snohomish   Washington 53061     1      0     786620
    ##  6 2020-01-25 Orange      California 06059     1      0    3164182
    ##  7 2020-01-25 Cook        Illinois   17031     1      0    5223719
    ##  8 2020-01-25 Snohomish   Washington 53061     1      0     786620
    ##  9 2020-01-26 Maricopa    Arizona    04013     1      0    4253913
    ## 10 2020-01-26 Los Angeles California 06037     1      0   10098052
    ## # ℹ 2,502,822 more rows
…
    mean_cases_per100k = mean(cases_per100k, na.rm = TRUE),
    sd_cases_per100k = sd(cases_per100k, na.rm = TRUE)
      )
df_normalized %>%
  group_by(state) %>%
  summarise(
    mean_deaths_per100k = mean(deaths_per100k, na.rm = TRUE),
    sd_deaths_per100k = sd(deaths_per100k, na.rm = TRUE),
    mean_cases_per100k = mean(cases_per100k, na.rm = TRUE),
    sd_cases_per100k = sd(cases_per100k, na.rm = TRUE)
      ) %>%
    drop_na()
```

    ## # A tibble: 51 × 5
    ##    state                mean_deaths_per100k sd_deaths_per100k mean_cases_per100k
    ##    <chr>                              <dbl>             <dbl>              <dbl>
    ##  1 Alabama                            227.              172.              10970.
    ##  2 Alaska                              42.7              56.0             10541.
    ##  3 Arizona                            262.              204.              11958.
    ##  4 Arkansas                           202.              162.              11196.
    ##  5 California                          88.8              87.5              8038.
    ##  6 Colorado                           119.              136.               9429.
    ##  7 Connecticut                        165.               87.3              7718.
    ##  8 Delaware                           165.              104.              10728.
    ##  9 District of Columbia               132.               53.9              7372.
    ## 10 Florida                            189.              155.              10990.
    ## # ℹ 41 more rows
    ## # ℹ 1 more variable: sd_cases_per100k <dbl>
…
## TASK: Find the top 10 max cases_per100k counties; report populations as well
##thought at first I should average counties but it looks like we want to preserve time data for the questions 
df_county <-
  df_normalized %>%
    group_by(county) %>%
      summarise(
        mean_deaths_per100k = mean(deaths_per100k, na.rm = TRUE),
        mean_cases_per100k = mean(cases_per100k, na.rm = TRUE),
        population= mean(population, na.rm = TRUE),
        state=first(state)
        )
print(df_county)
```

    ## # A tibble: 1,932 × 5
    ##    county    mean_deaths_per100k mean_cases_per100k population state         
    ##    <chr>                   <dbl>              <dbl>      <dbl> <chr>         
    ##  1 Abbeville               135.              10271.     24657  South Carolina
    ##  2 Acadia                  271.              11195.     62568  Louisiana     
    ##  3 Accomack                140.               8973.     32742  Virginia      
    ##  4 Ada                     102.              11596.    446052  Idaho         
    ##  5 Adair                   214.              11389.     18423. Iowa          
    ##  6 Adams                   150.              10033.     72056. Indiana       
    ##  7 Addison                  18.3              3684.     36939  Vermont       
    ##  8 Adjuntas                NaN                3889.     18181  Puerto Rico   
    ##  9 Aguada                  NaN                5301.     38643  Puerto Rico   
    ## 10 Aguadilla               NaN                4539.     54166  Puerto Rico   
    ## # ℹ 1,922 more rows
…
