…
``` r
print(df_spray)
```

    ## # A tibble: 156 × 12
    ##    test_num spray_height feed_mm_min feed_mm_sec fluid_psi air_psi needle
    ##       <dbl>        <dbl>       <dbl>       <dbl>     <dbl>   <dbl>  <dbl>
    ##  1      111         12.5        2000        33.3        30       6     12
    ##  2      112         12.5        4000        66.7        30       6     12
    ##  3      113         12.5        6000       100          30       6     12
    ##  4      114         12.5        9000       150          30       6     12
    ##  5      121         25          2000        33.3        30       6     12
    ##  6      122         25          4000        66.7        30       6     12
    ##  7      123         25          6000       100          30       6     12
    ##  8      124         25          9000       150          30       6     12
    ##  9      131         50          2000        33.3        30       6     12
    ## 10      132         50          4000        66.7        30       6     12
    ## # ℹ 146 more rows
    ## # ℹ 5 more variables: coat_dia <chr>, thick_mean <chr>, thick_sd <chr>,
    ## #   ...11 <lgl>, ...12 <lgl>
…
